 M_ip results for all 8 specimens at the last commit.
------------------------------------------------------

>>> for i in sps:
...  i.struct_props["m_ip_rd"]
... 
12194209.370118475
16240270.405531239
12654273.919560295
9577933.071463171
10683676.00782028
10683676.00782028
8246610.696059408
8246610.696059408
>>> for i in sps:
...  i.struct_props["m_ip_rd_draft"]
... 
3053053.8692292427
4752038.383744728
4642739.003685114
4393333.076037466
1423303.117844424
1829998.9153112017
2260349.1180658573
2906112.7328793625
